…
    #> NO2: 1974-2001, 2003 and 2004
    #> O3: 1974-2001, 2003 and 2004
    #> PM25: 1995-2004

## Inconsistent Metadata

Every entry in the raw NAPS data has latitude, longitude,
province/territory, and city information. However, for many sites these
values are inconsistent between files.

For example, lat/lng values have differing precisions between files
causing slight shifts in location.

    #> # A tibble: 308 × 4
    #>    site_id lat       lng        files                                           
    #>      <int> <chr>     <chr>      <chr>                                           
    #>  1   50116 45.47167  -73.57222  O3_2007, NO2_2014, NO2_2007, O3_2005, NO2_2013,…
    #>  2   50116 45.472854 -73.57296  O3_1982, O3_1987, NO2_1994, NO2_2000, O3_1978, …
    #>  3   60204 42.31578  -83.04367  O3_2006, NO2_2008, O3_2009, O3_2010, PM25_2007,…
    #>  4   60204 42.315778 -83.043667 O3_1977, O3_1991, NO2_1993, NO2_1997, NO2_2000,…
    #>  5   50308 46.82118  -71.22049  O3_2008, PM25_2014, O3_2006, NO2_2008, O3_2010,…
    #>  6   50308 46.821177 -71.220495 O3_1998, O3_2000, NO2_2001, NO2_1999, NO2_2004,…
    #>  7   50308 46.82118  -71.2205   O3_2015, PM25_2019, NO2_2021, O3_2022, O3_2002,…
    #>  8  101401 49.36989  -121.49912 NO2_2007, NO2_2018, PM25_2022, O3_2007, O3_2017…
    #>  9  101401 49.369887 -121.49912 NO2_1998, O3_1997, O3_2003, NO2_2000, O3_1999, …
    #> 10   60430 43.709444 -79.5435   O3_2000, NO2_2004, NO2_2003, PM25_2003, O3_2003…
    #> # ℹ 298 more rows

In addition, city names are inconsistently spelled between files

    #> # A tibble: 27 × 2
    #>    prov_terr cities                             
    #>    <chr>     <chr>                              
    #>  1 AB        Bitumount | Bitumont               
    #>  2 AB        Fort Mackay | Fort Mckay           
    #>  3 BC        Metro Van - Abbotsford | Abbotsford
    #>  4 BC        Metro Van - Burnaby | Burnaby      
    #>  5 BC        Chilliwack | Metro Van-Chilliwack  
    #>  6 BC        Coquitlam | Metro Van - Coquitlam  
    #>  7 BC        Metro Van - Delta | Delta          
    #>  8 BC        Fort St. John | Fort St John       
    #>  9 BC        Metro Van-Hope | Hope              
    #> 10 BC        Langley | Metro Van-Langley        
    #> # ℹ 17 more rows

and some sites have multiple city names across files.

    #> # A tibble: 48 × 3
    #>    site_id n_cities cities                                           
    #>      <int>    <int> <chr>                                            
    #>  1  100135        2 Coquitlam | Metro Van - Coquitlam                
    #>  2   52301        2 Saint-Faustin-Lac-Carré | Saint-Faustin-Lac-Carre
    #>  3  100121        2 Metro Van - North Vancouver | North Vancouver    
    #>  4   10102        2 St. John's | St Johns                            
    #>  5   90801        2 Fort Mckay | Fort Mackay                         
    #>  6   55001        2 Ferme Neuve | Mont Saint-Michel                  
    #>  7  101004        2 Metro Van - Abbotsford | Abbotsford              
    #>  8   50801        2 Trois Rivières | Trois-Rivières                  
    #>  9   51501        2 St-Zépherin-De-Courval | St. Zephirin-De-Courval 
    #> 10  100112        2 Vancouver | Metro Van - Vancouver                
    #> # ℹ 38 more rows

## Unrealistic Values

Some values in the raw data are unrealistically high or low, coordinates
exist that are outside Canada, and some site ids are not properly padded
with leading zeros.

Here is a sample of files/sites with negative concentrations:

    #> # A tibble: 138 × 2
    #>    file_name site_ids                                                           
    #>    <chr>     <chr>                                                              
    #>  1 NO2_1974  050102, 070101, 030116, 060204, 060401, 050104, 050304, 090122, 06…
    #>  2 NO2_1975  050102, 050110, 070101, 090114, 060505, 060602, 030116, 060204, 06…
    #>  3 NO2_1976  060505, 060602, 061301, 050304, 090122, 050102, 060501, 060104, 07…
    #>  4 NO2_1977  060414, 060505, 060602, 061301, 050109, 050304, 090122, 100110, 06…
    #>  5 NO2_1978  060414, 060505, 060602, 061301, 050109, 050304, 090122, 100110, 06…
    #>  6 NO2_1979  060403, 090130, 050104, 060413, 100106, 050115, 060415, 060501, 06…
    #>  7 NO2_1980  030115, 100302, 050203, 061004, 050110, 050113, 060412, 080109, 05…
    #>  8 NO2_1981  050110, 050113, 060105, 060412, 050102, 060418, 030115, 100302, 04…
    #>  9 NO2_1982  060402, 061501, 070119, 090222, 100111, 060101, 040202, 050109, 05…
    #> 10 NO2_1983  050102, 050103, 060418, 050110, 050113, 060105, 060412, 080109, 05…
    #> # ℹ 128 more rows
…
